{
    "bpm": 135,
	"minHz": 150,
	"maxHz": 400,
    "steps":
    [
        { "beat": 1,    "pitch": 0 },
        { "beat": 2,    "pitch": 0.6 },
        { "beat": 3,    "pitch": 0.8 },
        { "beat": 4,    "pitch": -1 },
        { "beat": 5,    "pitch": 0.5 },
        { "beat": 6,  "pitch": 1 },
        { "beat": 7,  "pitch": 0.1 },
        { "beat": 8,    "pitch": 0.2 },
        { "beat": 9,   "pitch": -1 },
        { "beat": 10,   "pitch": 0.5 },
        { "beat": 11,   "pitch": 0.4 },
        { "beat": 12,   "pitch": -1 }
    ]
}
